[
  "For this purpose, it relies on Engine.IO, which first establishes a long-polling connection, then tries to upgrade to better transports that are tested on the side, like WebSocket. Please see the Goals section for more information.",
  "Unless instructed otherwise a disconnected client will try to reconnect forever, until the server is available again. Please see the available reconnection options here.",
  "A heartbeat mechanism is implemented at the Engine.IO level, allowing both the server and the client to know when the other one is not responding anymore.",
  "That functionality is achieved with timers set on both the server and the client, with timeout values (the pingInterval and pingTimeout parameters) shared during the connection handshake. Those timers require any subsequent client calls to be directed to the same server, hence the sticky-session requirement when using multiples nodes."
]